…
Finally, we can assembly the components into a tidy dataframe using
`assemble_table_components`.

``` r
assemble_table_components(ai_01_processed)
#> # A tibble: 1,816 x 8
#>     row   col comment value col_group_01 col_group_02 row_group_01
#>   <int> <int> <chr>   <chr> <chr>        <chr>        <chr>       
#> 1     8     2 <NA>    485   Employment ~ '000         2006–07     
#> 2     8     3 <NA>    5843  Wages and s~ $m           2006–07     
#> 3     8     4 <NA>    54410 Sales and s~ $m           2006–07     
#> # ... with 1,813 more rows, and 1 more variable: row_group_02 <chr>
```
…
Finally, we can assembly the components into a tidy dataframe using
`assemble_table_components`.

``` r
assemble_table_components(eea_01_processed)  
#> # A tibble: 156 x 8
#>     row   col comment value col_group_01 row_group_01 row_group_02
#>   <int> <int> <chr>   <chr> <chr>        <chr>        <chr>       
#> 1     7     2 <NA>    13532 2003–04      "Energy Tax~ <NA>        
#> 2     7     3 <NA>    14352 2004–05      "Energy Tax~ <NA>        
#> 3     7     4 <NA>    14075 2005–06      "Energy Tax~ <NA>        
#> # ... with 153 more rows, and 1 more variable: row_group_03 <chr>
```
…
assemble_table_components(cpi_processed) 
#> # A tibble: 7,185 x 15
#>     row   col comment value col_group_01 col_group_02 col_group_03
#>   <int> <int> <chr>   <chr> <chr>        <chr>        <chr>       
#> 1    11     2 <NA>    3.7   Index Numbe~ Index Numbe~ Original    
#> 2    11     3 <NA>    3.8   Index Numbe~ Index Numbe~ Original    
#> 3    11     4 <NA>    3.7   Index Numbe~ Index Numbe~ Original    
#> # ... with 7,182 more rows, and 8 more variables: col_group_04 <chr>,
#> #   col_group_05 <chr>, col_group_06 <chr>, col_group_07 <chr>,
#> #   col_group_08 <chr>, col_group_09 <chr>, col_group_10 <chr>,
#> #   row_group_01 <chr>
```
