…
phd_field_df_components <-
  phd_field_df_components %>%
  change_direction("row_group_01", "WNW") %>%
  change_direction("row_group_02", "WNW")
```

Check the structure of the table implied by `phd_field_df_components`
against the original excel table. If tidyABS has not identified row and
column names correctly, the output below will not line up with the
original excel table.

``` r
phd_field_df_components %>% reconstruct_table() 
#> # A tibble: 45 x 17
#>    row_group_01 row_group_02 row_group_03 `1987_Number` `1987_Percent`
#>    <chr>        <chr>        <chr>                <dbl>          <dbl>
#>  1 All fields   <NA>         <NA>                 32365          100  
#>  2 All fields   Life scienc~ <NA>                  5783           17.9
#>  3 All fields   Life scienc~ Agricultura~          1144            3.5
#>  4 All fields   Life scienc~ Biological ~          3839           11.9
#>  5 All fields   Life scienc~ Health scie~           800            2.5
#>  6 All fields   Physical sc~ <NA>                  3811           11.8
#>  7 All fields   Physical sc~ Chemistry             1975            6.1
#>  8 All fields   Physical sc~ Geosciences~           599            1.9
#>  9 All fields   Physical sc~ Physics and~          1237            3.8
#> 10 All fields   Mathematics~ <NA>                  1189            3.7
#> # ... with 35 more rows, and 12 more variables: `1992_Number` <dbl>,
#> #   `1992_Percent` <dbl>, `1997_Number` <dbl>, `1997_Percent` <dbl>,
#> #   `2002_Number` <dbl>, `2002_Percent` <dbl>, `2007_Number` <dbl>,
#> #   `2007_Percent` <dbl>, `2012_Number` <dbl>, `2012_Percent` <dbl>,
#> #   `2017_Number` <dbl>, `2017_Percent` <dbl>
```
…
Check the structure of the table implied by `phd_field_df_components`
against the original excel table. If tidyABS has not identified row and
column names correctly, the output below will not line up with the
original excel table.

``` r
phd_background_components %>% reconstruct_table()  
#> # A tibble: 271 x 16
#>    row_group_01 row_group_02 row_group_03 row_group_04 row_group_05
#>    <chr>        <chr>        <chr>        <chr>        <chr>       
#>  1 All fields   <NA>         <NA>         <NA>         <NA>        
#>  2 All fields   Life scienc~ <NA>         <NA>         <NA>        
#>  3 All fields   Life scienc~ "Agricultur~ <NA>         <NA>        
#>  4 All fields   Life scienc~ "Agricultur~ Agricultura~ <NA>        
#>  5 All fields   Life scienc~ "Agricultur~ Agronomy, h~ <NA>        
#>  6 All fields   Life scienc~ "Agricultur~ Animal nutr~ <NA>        
#>  7 All fields   Life scienc~ "Agricultur~ Animal scie~ <NA>        
#>  8 All fields   Life scienc~ "Agricultur~ Environment~ <NA>        
#>  9 All fields   Life scienc~ "Agricultur~ Fishing and~ <NA>        
#> 10 All fields   Life scienc~ "Agricultur~ Food scienc~ <NA>        
#> # ... with 261 more rows, and 11 more variables: `All doctorate
#> #   recipientsa` <dbl>, `Temporary visa holders` <dbl>, `U.S. citizens and
#> #   permanent residents_Total` <dbl>, `U.S. citizens and permanent
#> #   residents_Hispanic or Latino` <dbl>, `U.S. citizens and permanent
#> #   residents_Not Hispanic or Latino_American Indian or Alaska
#> #   Native` <dbl>, `U.S. citizens and permanent residents_Not Hispanic or
#> #   Latino_Asian` <dbl>, `U.S. citizens and permanent residents_Not
#> #   Hispanic or Latino_Black or African American` <dbl>, `U.S. citizens
#> #   and permanent residents_Not Hispanic or Latino_White` <dbl>, `U.S.
…
